Beam,Start,End,A [m²],E [Pa],ν [-]
0,0,1,0.000708,187000000000,0.3
1,0,2,0.000708,187000000000,0.3
2,1,2,0.000708,187000000000,0.3
3,1,3,0.000708,187000000000,0.3
4,3,4,0.000708,187000000000,0.3
5,2,4,0.000708,187000000000,0.3
6,2,6,0.000708,187000000000,0.3
7,4,5,0.000708,187000000000,0.3
8,5,6,0.000708,187000000000,0.3
9,6,7,0.000708,187000000000,0.3
10,6,8,0.000708,187000000000,0.3
11,7,8,0.000708,187000000000,0.3
12,7,9,0.000708,187000000000,0.3
13,7,10,0.000708,187000000000,0.3
14,8,10,0.000708,187000000000,0.3
15,9,10,0.000708,187000000000,0.3
